Copyright 1986-2019 Xilinx, Inc. All Rights Reserved.
--------------------------------------------------------------------------------------------------------------------------------------------------------------------------
| Tool Version : Vivado v.2019.1 (lin64) Build 2552052 Fri May 24 14:47:09 MDT 2019
| Date         : Mon Aug 12 10:03:05 2019
| Host         : matteo-ROS running 64-bit Ubuntu 18.04.3 LTS
| Command      : report_methodology -file XTEA_wrapper_methodology_drc_routed.rpt -pb XTEA_wrapper_methodology_drc_routed.pb -rpx XTEA_wrapper_methodology_drc_routed.rpx
| Design       : XTEA_wrapper
| Device       : xc7z020clg400-1
| Speed File   : -1
| Design State : Fully Routed
--------------------------------------------------------------------------------------------------------------------------------------------------------------------------

Report Methodology

Table of Contents
-----------------
1. REPORT SUMMARY
2. REPORT DETAILS

1. REPORT SUMMARY
-----------------
            Netlist: netlist
          Floorplan: design_1
      Design limits: <entire design considered>
             Max violations: <unlimited>
             Violations found: 1
+---------+----------+------------------------------+------------+
| Rule    | Severity | Description                  | Violations |
+---------+----------+------------------------------+------------+
| LUTAR-1 | Warning  | LUT drives async reset alert | 1          |
+---------+----------+------------------------------+------------+

2. REPORT DETAILS
-----------------
LUTAR-1#1 Warning
LUT drives async reset alert  
LUT cell XTEA_i/XTEA/U0/XTEA_v2_0_S00_AXI_inst/xt/axi_rdata[0]_i_1, with 2 or more inputs, drives asynchronous preset/clear pin(s) XTEA_i/XTEA/U0/XTEA_v2_0_S00_AXI_inst/xt/COUNTER_reg[0]/CLR, XTEA_i/XTEA/U0/XTEA_v2_0_S00_AXI_inst/xt/COUNTER_reg[1]/CLR, XTEA_i/XTEA/U0/XTEA_v2_0_S00_AXI_inst/xt/COUNTER_reg[2]/CLR, XTEA_i/XTEA/U0/XTEA_v2_0_S00_AXI_inst/xt/COUNTER_reg[3]/CLR, XTEA_i/XTEA/U0/XTEA_v2_0_S00_AXI_inst/xt/COUNTER_reg[4]/CLR, XTEA_i/XTEA/U0/XTEA_v2_0_S00_AXI_inst/xt/COUNTER_reg[5]/CLR, XTEA_i/XTEA/U0/XTEA_v2_0_S00_AXI_inst/xt/FSM_sequential_STATUS_reg[0]/CLR, XTEA_i/XTEA/U0/XTEA_v2_0_S00_AXI_inst/xt/FSM_sequential_STATUS_reg[1]/CLR, XTEA_i/XTEA/U0/XTEA_v2_0_S00_AXI_inst/xt/FSM_sequential_STATUS_reg[2]/CLR, XTEA_i/XTEA/U0/XTEA_v2_0_S00_AXI_inst/xt/KEY0_reg[0]/CLR, XTEA_i/XTEA/U0/XTEA_v2_0_S00_AXI_inst/xt/KEY0_reg[10]/CLR, XTEA_i/XTEA/U0/XTEA_v2_0_S00_AXI_inst/xt/KEY0_reg[11]/CLR, XTEA_i/XTEA/U0/XTEA_v2_0_S00_AXI_inst/xt/KEY0_reg[12]/CLR, XTEA_i/XTEA/U0/XTEA_v2_0_S00_AXI_inst/xt/KEY0_reg[13]/CLR, XTEA_i/XTEA/U0/XTEA_v2_0_S00_AXI_inst/xt/KEY0_reg[14]/CLR (the first 15 of 298 listed). The LUT may glitch and trigger an unexpected reset, even if it is a properly timed path.
Related violations: <none>


